…
# Aineiston tunnusluvut
summary(turku_data_yksiot$muutos_2015_2019)

##    Min. 1st Qu.  Median    Mean 3rd Qu.    Max.    NA's 
##  0.2143  1.0000  1.0195     Inf  1.1643     Inf      13

# Tarkastellaan, miltä muutoksen suuruus näyttää yläpäässä
turku_data_yksiot %>% arrange(desc(muutos_2015_2019))

## # A tibble: 131 x 4
## # Groups:   Osa.alue [131]
##    Osa.alue                          Vuosi yksiot muutos_2015_2019
##    <fct>                             <fct>  <dbl>            <dbl>
##  1 853216047 Toijainen               2019       2           Inf   
##  2 853323072 Skanssi                 2019     174            58   
##  3 853527087 Kuuvuori                2019     508             3.30
##  4 853633099 Impivaara               2019      45             3   
##  5 853113037 Otkantti                2019      29             2.9 
##  6 853105018 Kakola                  2019     523             2.04
##  7 853214041 Jänessaari              2019       2             2   
##  8 853526081 Asuin-Itäharju          2019     395             1.98
##  9 853708027 Autistenaukio - Oikotie 2019     129             1.87
## 10 853736110 Ruohonpää länt.         2019     255             1.67
## # … with 121 more rows
…
